CASENAME  base_area  mass     volume  density  height  length
A1        40         576000   480     1200     12      10    
A2        40         640000   640     1000     16      10    
A3        40         720000   800     900      20      10    
B1        60         864000   720     1200     12      15    
B2        60         960000   960     1000     16      15    
B3        60         1080000  1200    900      20      15    
